{
    "id": 160602266,
    "reference": "1606.02266",
    "source": "https://doi.org/10.17182/hepdata.78403.v1/t1, https://doi.org/10.17182/hepdata.78403.v1/t18",
    "citeKey": "ATLAS:2016neq",
    "collider": "LHC8",
    "experiment": "LHCComb",
    "luminosity": 25,
    "referenceMass": 125.09,
    "referenceModel": "SMHiggsEW",
    "massResolution": 20,
    "subMeasurements": {
        "ggH_gamgam": {
            "ref": [
                0.0388,
                0.0438,
                0.0488
            ],
            "obs": [
                0.0383227069900721,
                0.048,
                0.0579297532698451
            ],
            "process": {
                "channels": [
                    [
                        "ggH",
                        "gamgam"
                    ],
                    [
                        "bbH",
                        "gamgam"
                    ]
                ]
            },
            "massResolution": 0.24,
            "massSensitive": true
        },
        "ggH_ZZ": {
            "ref": [
                0.453,
                0.513,
                0.573
            ],
            "obs": [
                0.420672210768064,
                0.581,
                0.753956641965552
            ],
            "process": {
                "channels": [
                    [
                        "ggH",
                        "ZZ"
                    ],
                    [
                        "bbH",
                        "ZZ"
                    ]
                ]
            },
            "massResolution": 0.24,
            "massSensitive": true
        },
        "ggH_WW": {
            "ref": [
                3.65,
                4.15,
                4.65
            ],
            "obs": [
                2.78645836462401,
                3.48,
                4.18724818840348
            ],
            "process": {
                "channels": [
                    [
                        "ggH",
                        "WW"
                    ],
                    [
                        "bbH",
                        "WW"
                    ]
                ]
            },
            "massResolution": 5
        },
        "ggH_tautau": {
            "ref": [
                1.07,
                1.21,
                1.35
            ],
            "obs": [
                0.578824545362944,
                1.26,
                1.94883960397178
            ],
            "process": {
                "channels": [
                    [
                        "ggH",
                        "tautau"
                    ],
                    [
                        "bbH",
                        "tautau"
                    ]
                ]
            }
        },
        "vbfH_gamgam": {
            "ref": [
                0.0034,
                0.0036,
                0.0038
            ],
            "obs": [
                0.00284884218659093,
                0.00462,
                0.00654924855837707
            ],
            "process": {
                "channels": [
                    [
                        "vbfH",
                        "gamgam"
                    ]
                ]
            },
            "massResolution": 0.24,
            "massSensitive": true
        },
        "vbfH_ZZ": {
            "ref": [
                0.0402,
                0.0422,
                0.0442
            ],
            "obs": [
                -0.0233773666869418,
                0.0029,
                0.0492624848341846
            ],
            "process": {
                "channels": [
                    [
                        "vbfH",
                        "ZZ"
                    ]
                ]
            },
            "massResolution": 0.24,
            "massSensitive": true
        },
        "vbfH_WW": {
            "ref": [
                0.324,
                0.341,
                0.358
            ],
            "obs": [
                0.267952764689664,
                0.395,
                0.539138821973818
            ],
            "process": {
                "channels": [
                    [
                        "vbfH",
                        "WW"
                    ]
                ]
            },
            "massResolution": 5
        },
        "vbfH_tautau": {
            "ref": [
                0.094,
                0.1,
                0.106
            ],
            "obs": [
                0.0882848804986284,
                0.125,
                0.163948684188301
            ],
            "process": {
                "channels": [
                    [
                        "vbfH",
                        "tautau"
                    ]
                ]
            }
        },
        "HW_gamgam": {
            "ref": [
                0.00151,
                0.0016,
                0.00169
            ],
            "obs": [
                -0.00114271307506014,
                0.00072,
                0.00282489904746047
            ],
            "process": {
                "channels": [
                    [
                        "HW",
                        "gamgam"
                    ]
                ]
            },
            "massResolution": 0.24,
            "massSensitive": true
        },
        "HW_WW": {
            "ref": [
                0.145,
                0.152,
                0.159
            ],
            "obs": [
                0.0788440265214204,
                0.236,
                0.416313615681124
            ],
            "process": {
                "channels": [
                    [
                        "HW",
                        "WW"
                    ]
                ]
            },
            "massResolution": 5
        },
        "HW_tautau": {
            "ref": [
                0.0412,
                0.044,
                0.0468
            ],
            "obs": [
                -0.124464865831324,
                -0.064,
                -0.000368246920267865
            ],
            "process": {
                "channels": [
                    [
                        "HW",
                        "tautau"
                    ]
                ]
            }
        },
        "HW_bb": {
            "ref": [
                0.387,
                0.404,
                0.421
            ],
            "obs": [
                0.221181206213499,
                0.417,
                0.624195559797984
            ],
            "process": {
                "channels": [
                    [
                        "HW",
                        "bb"
                    ]
                ]
            }
        },
        "HZ_gamgam": {
            "ref": [
                0.00088,
                0.00094,
                0.001
            ],
            "obs": [
                -0.00189027540765903,
                0.00047,
                0.00334041808801436
            ],
            "process": {
                "channels": [
                    [
                        "HZ",
                        "gamgam"
                    ]
                ]
            },
            "massResolution": 0.24,
            "massSensitive": true
        },
        "HZ_WW": {
            "ref": [
                0.084,
                0.089,
                0.094
            ],
            "obs": [
                0.327375352223229,
                0.527,
                0.757835439220238
            ],
            "process": {
                "channels": [
                    [
                        "HZ",
                        "WW"
                    ]
                ]
            },
            "massResolution": 5
        },
        "HZ_tautau": {
            "ref": [
                0.0242,
                0.026,
                0.0278
            ],
            "obs": [
                0.0111812003571215,
                0.058,
                0.113713553108736
            ],
            "process": {
                "channels": [
                    [
                        "HZ",
                        "tautau"
                    ]
                ]
            }
        },
        "HZ_bb": {
            "ref": [
                0.226,
                0.238,
                0.25
            ],
            "obs": [
                -0.00410221336606702,
                0.084,
                0.177059120993055
            ],
            "process": {
                "channels": [
                    [
                        "HZ",
                        "bb"
                    ]
                ]
            }
        },
        "Htt_gamgam": {
            "ref": [
                0.000259,
                0.000294,
                0.000329
            ],
            "obs": [
                0.000262661527200841,
                0.000641,
                0.00112355362396318
            ],
            "process": {
                "channels": [
                    [
                        "Htt",
                        "gamgam"
                    ],
                    [
                        "schanHt",
                        "gamgam"
                    ],
                    [
                        "tchanHt",
                        "gamgam"
                    ],
                    [
                        "HtW",
                        "gamgam"
                    ]
                ]
            },
            "massResolution": 0.24,
            "massSensitive": true
        },
        "Htt_WW": {
            "ref": [
                0.0248,
                0.028,
                0.0312
            ],
            "obs": [
                0.0899791711858281,
                0.138,
                0.186826222462935
            ],
            "process": {
                "channels": [
                    [
                        "Htt",
                        "WW"
                    ],
                    [
                        "schanHt",
                        "WW"
                    ],
                    [
                        "tchanHt",
                        "WW"
                    ],
                    [
                        "HtW",
                        "WW"
                    ]
                ]
            },
            "massResolution": 5
        },
        "Htt_tautau": {
            "ref": [
                0.0071,
                0.0081,
                0.0091
            ],
            "obs": [
                -0.0416871667038964,
                -0.0152,
                0.0151402373095531
            ],
            "process": {
                "channels": [
                    [
                        "Htt",
                        "tautau"
                    ],
                    [
                        "schanHt",
                        "tautau"
                    ],
                    [
                        "tchanHt",
                        "tautau"
                    ],
                    [
                        "HtW",
                        "tautau"
                    ]
                ]
            }
        },
        "Htt_bb": {
            "ref": [
                0.066,
                0.074,
                0.082
            ],
            "obs": [
                0.00827518115965231,
                0.079,
                0.150281133548787
            ],
            "process": {
                "channels": [
                    [
                        "Htt",
                        "bb"
                    ],
                    [
                        "schanHt",
                        "bb"
                    ],
                    [
                        "tchanHt",
                        "bb"
                    ],
                    [
                        "HtW",
                        "bb"
                    ]
                ]
            }
        }
    },
    "correlations": {
        "experimental": {
            "ggH_gamgam": {
                "ggH_ZZ": 0.009,
                "ggH_WW": 0.004,
                "ggH_tautau": -0.001,
                "vbfH_gamgam": -0.254,
                "vbfH_ZZ": -0.008,
                "vbfH_WW": -0.003,
                "vbfH_tautau": -0.004,
                "HW_gamgam": -0.03,
                "HW_WW": 0.002,
                "HW_bb": 0.004,
                "HZ_gamgam": -0.136,
                "HZ_WW": 0.004,
                "HZ_tautau": 0.004,
                "HZ_bb": 0.001,
                "Htt_gamgam": 0.013,
                "Htt_WW": 0.007,
                "Htt_tautau": 0.002,
                "Htt_bb": 0.001
            },
            "ggH_ZZ": {
                "ggH_WW": 0.029,
                "ggH_tautau": -0.001,
                "vbfH_gamgam": -0.006,
                "vbfH_ZZ": -0.263,
                "vbfH_WW": -0.008,
                "vbfH_tautau": -0.005,
                "HW_WW": 0.005,
                "HW_tautau": 0.009,
                "HW_bb": 0.005,
                "HZ_WW": 0.006,
                "HZ_tautau": 0.007,
                "HZ_bb": 0.002,
                "Htt_gamgam": 0.002,
                "Htt_WW": -0.083,
                "Htt_tautau": -0.02,
                "Htt_bb": -0.016
            },
            "ggH_WW": {
                "ggH_tautau": -0.01,
                "vbfH_gamgam": 0.008,
                "vbfH_ZZ": 0.001,
                "vbfH_WW": -0.163,
                "vbfH_tautau": 0.004,
                "HW_WW": -0.065,
                "HW_tautau": 0.02,
                "HW_bb": 0.003,
                "HZ_gamgam": 0.001,
                "HZ_WW": -0.072,
                "HZ_tautau": 0.013,
                "HZ_bb": 0.001,
                "Htt_gamgam": 0.002,
                "Htt_WW": 0.014,
                "Htt_tautau": 0.002,
                "Htt_bb": 0.005
            },
            "ggH_tautau": {
                "vbfH_gamgam": 0.011,
                "vbfH_ZZ": 0.008,
                "vbfH_WW": 0.009,
                "vbfH_tautau": -0.371,
                "HW_WW": 0.032,
                "HW_tautau": -0.247,
                "HW_bb": 0.002,
                "HZ_gamgam": 0.001,
                "HZ_WW": 0.012,
                "HZ_tautau": -0.211,
                "Htt_gamgam": 0.001,
                "Htt_WW": 0.001,
                "Htt_bb": 0.008
            },
            "vbfH_gamgam": {
                "vbfH_ZZ": 0.023,
                "vbfH_WW": 0.015,
                "vbfH_tautau": 0.016,
                "HW_WW": 0.001,
                "HW_tautau": -0.002,
                "HW_bb": 0.002,
                "HZ_gamgam": 0.009,
                "HZ_WW": 0.003,
                "HZ_bb": 0.001,
                "Htt_gamgam": -0.005,
                "Htt_tautau": -0.001,
                "Htt_bb": 0.002
            },
            "vbfH_ZZ": {
                "vbfH_WW": 0.019,
                "vbfH_tautau": 0.018,
                "HW_WW": -0.001,
                "HW_tautau": -0.005,
                "HZ_gamgam": 0.001,
                "HZ_WW": -0.001,
                "HZ_tautau": -0.003,
                "Htt_WW": 0.045,
                "Htt_tautau": 0.011,
                "Htt_bb": 0.008
            },
            "vbfH_WW": {
                "vbfH_tautau": 0.025,
                "HW_WW": -0.001,
                "HW_tautau": 0.002,
                "HW_bb": 0.003,
                "HZ_gamgam": 0.002,
                "HZ_WW": -0.002,
                "HZ_tautau": 0.003,
                "HZ_bb": 0.001,
                "Htt_gamgam": 0.002,
                "Htt_WW": 0.004,
                "Htt_tautau": 0.001,
                "Htt_bb": -0.015
            },
            "vbfH_tautau": {
                "HW_WW": -0.011,
                "HW_tautau": 0.049,
                "HW_bb": 0.002,
                "HZ_gamgam": 0.001,
                "HZ_tautau": 0.04,
                "HZ_bb": 0.001,
                "Htt_gamgam": 0.002,
                "Htt_WW": 0.002,
                "Htt_bb": -0.015
            },
            "HW_gamgam": {
                "HZ_gamgam": -0.641,
                "Htt_gamgam": -0.028
            },
            "HW_WW": {
                "HW_tautau": -0.123,
                "HW_bb": 0.002,
                "HZ_gamgam": 0.001,
                "HZ_WW": -0.119,
                "HZ_tautau": 0.015,
                "HZ_bb": 0.001,
                "Htt_gamgam": 0.001,
                "Htt_WW": 0.005,
                "Htt_tautau": 0.001,
                "Htt_bb": 0.005
            },
            "HW_tautau": {
                "HZ_gamgam": 0.001,
                "HZ_WW": 0.025,
                "HZ_tautau": -0.024,
                "Htt_WW": 0.01,
                "Htt_tautau": 0.001,
                "Htt_bb": 0.003
            },
            "HW_bb": {
                "HZ_WW": 0.003,
                "HZ_tautau": 0.002,
                "HZ_bb": -0.068,
                "Htt_gamgam": 0.002,
                "Htt_WW": 0.003,
                "Htt_tautau": 0.002
            },
            "HZ_gamgam": {
                "HZ_WW": 0.001,
                "HZ_tautau": 0.001,
                "Htt_gamgam": -0.114
            },
            "HZ_WW": {
                "HZ_tautau": -0.05,
                "HZ_bb": 0.003,
                "Htt_gamgam": 0.002,
                "Htt_WW": 0.01,
                "Htt_tautau": 0.002,
                "Htt_bb": 0.001
            },
            "HZ_tautau": {
                "HZ_bb": 0.001,
                "Htt_gamgam": 0.001,
                "Htt_WW": 0.007,
                "Htt_tautau": 0.001
            },
            "HZ_bb": {
                "Htt_gamgam": 0.001,
                "Htt_WW": 0.001,
                "Htt_tautau": 0.001
            },
            "Htt_gamgam": {
                "Htt_WW": 0.003,
                "Htt_bb": 0.001
            },
            "Htt_WW": {
                "Htt_tautau": -0.472,
                "Htt_bb": 0.012
            },
            "Htt_tautau": {
                "Htt_bb": 0.005
            }
        }
    }
}