{
    "id": 220412957,
    "reference": "2204.12957",
    "source": "https://doi.org/10.17182/hepdata.127974.v1/t3, https://doi.org/10.17182/hepdata.127974.v1/t5, https://doi.org/10.17182/hepdata.127974.v1/t8, http://dgillber.web.cern.ch/dgillber/ggF_uncertainty_2017/corr2017.pdf",
    "citeKey": "CMS:2022kdi",
    "collider": "LHC13",
    "experiment": "CMS",
    "luminosity": 138.0,
    "referenceMass": 125,
    "referenceModel": "SMHiggsEW",
    "massResolution": 2.5,
    "subMeasurements": {
        "ggH 0 JetpTH [0,10]": {
            "ref": [
                428.354854676288,
                428.484854676288,
                428.614854676288
            ],
            "obs": [
                -1057.0,
                -707.0,
                -359.0
            ],
            "process": {
                "channels": [
                    [
                        "H",
                        "tautau"
                    ]
                ]
            }
        },
        "ggH 0 JetpTH [10,200]": {
            "ref": [
                1344.11602415263,
                1344.18602415263,
                1344.25602415263
            ],
            "obs": [
                -1216.0,
                -578.0,
                57.0
            ],
            "process": {
                "channels": [
                    [
                        "H",
                        "tautau"
                    ]
                ]
            }
        },
        "ggH 1 JetpTH [0,60]": {
            "ref": [
                434.106563996444,
                434.246563996444,
                434.386563996444
            ],
            "obs": [
                32.0,
                317.0,
                603.0
            ],
            "process": {
                "channels": [
                    [
                        "H",
                        "tautau"
                    ]
                ]
            }
        },
        "ggH 1 JetpTH [60,120]": {
            "ref": [
                278.431441222211,
                278.571441222211,
                278.711441222211
            ],
            "obs": [
                438.0,
                585.0,
                733.0
            ],
            "process": {
                "channels": [
                    [
                        "H",
                        "tautau"
                    ]
                ]
            }
        },
        "ggH 1 JetpTH [120,200]": {
            "ref": [
                47.449751129508,
                47.639751129508,
                47.829751129508
            ],
            "obs": [
                46.8,
                76.7,
                106.7
            ],
            "process": {
                "channels": [
                    [
                        "H",
                        "tautau"
                    ]
                ]
            }
        },
        "ggH \\geq 2 JetpTH [0,200]": {
            "ref": [
                321.917648944806,
                322.147648944806,
                322.377648944806
            ],
            "obs": [
                308.0,
                480.0,
                653.0
            ],
            "process": {
                "channels": [
                    [
                        "H",
                        "tautau"
                    ]
                ]
            }
        },
        "ggHpTH [200_300]": {
            "ref": [
                26.8703234201961,
                27.2903234201961,
                27.7103234201961
            ],
            "obs": [
                24.0,
                42.3,
                60.7
            ],
            "process": {
                "channels": [
                    [
                        "H",
                        "tautau"
                    ]
                ]
            }
        },
        "ggHpTH [300,\\infty]": {
            "ref": [
                6.67285731979116,
                7.14285731979116,
                7.61285731979116
            ],
            "obs": [
                10.08,
                16.5,
                23.0
            ],
            "process": {
                "channels": [
                    [
                        "H",
                        "tautau"
                    ]
                ]
            }
        },
        "qqH \\geq 2 Jet mjj [350,700]pTH [0,200]": {
            "ref": [
                33.2253054750149,
                33.2653054750149,
                33.3053054750149
            ],
            "obs": [
                14.0,
                48.9,
                84.2
            ],
            "process": {
                "channels": [
                    [
                        "vbfH",
                        "tautau"
                    ]
                ]
            }
        },
        "qqH \\geq 2 Jet mjj [700,\\infty]pTH [0,200]": {
            "ref": [
                46.7341931886504,
                46.7741931886504,
                46.8141931886504
            ],
            "obs": [
                43.5,
                58.0,
                72.9
            ],
            "process": {
                "channels": [
                    [
                        "vbfH",
                        "tautau"
                    ]
                ]
            }
        },
        "qqH \\geq 2Jet mjj [350,\\infty]pTH [200,\\infty]": {
            "ref": [
                10.8450002430752,
                10.8750002430752,
                10.9050002430752
            ],
            "obs": [
                -1.52,
                1.74,
                5.11
            ],
            "process": {
                "channels": [
                    [
                        "vbfH",
                        "tautau"
                    ]
                ]
            }
        },
        " qqH < 2 Jet \\vee mjj [0,350]": {
            "ref": [
                194.919493071532,
                194.949493071532,
                194.979493071532
            ],
            "obs": [
                -435.0,
                -193.0,
                58.0
            ],
            "process": {
                "channels": [
                    [
                        "vbfH",
                        "tautau"
                    ]
                ]
            }
        },
        "WHpTV [0,150]": {
            "ref": [
                20.4763285569391,
                20.5063285569391,
                20.5363285569391
            ],
            "obs": [
                -2.4,
                16.2,
                35.6
            ],
            "process": {
                "channels": [
                    [
                        "HW",
                        "tautau"
                    ]
                ]
            }
        },
        "WHpTV [150,\\infty]": {
            "ref": [
                3.24433950408577,
                3.29433950408577,
                3.34433950408577
            ],
            "obs": [
                4.6,
                8.73,
                13.21
            ],
            "process": {
                "channels": [
                    [
                        "HW",
                        "tautau"
                    ]
                ]
            }
        },
        "ZHpTV [0,150]": {
            "ref": [
                11.84,
                11.9,
                11.96
            ],
            "obs": [
                14.18,
                23.8,
                34.4
            ],
            "process": {
                "channels": [
                    [
                        "HZ",
                        "tautau"
                    ]
                ]
            }
        },
        "ZHpTV [150,\\infty]": {
            "ref": [
                2.41376139091207,
                2.51376139091207,
                2.61376139091207
            ],
            "obs": [
                3.48,
                5.48,
                7.8
            ],
            "process": {
                "channels": [
                    [
                        "HZ",
                        "tautau"
                    ]
                ]
            }
        }
    },
    "correlations": {
        "experimental": {
            "ggH 0 JetpTH [0,10]": {
                "ggH 0 JetpTH [10,200]": 0.40514000000000006,
                "ggHpTH [200_300]": 0.11493,
                "ggHpTH [300,\\infty]": 0.062601,
                "ggH 1 JetpTH [0,60]": 0.09075,
                "ggH 1 JetpTH [60,120]": 0.15466,
                "ggH 1 JetpTH [120,200]": 0.10853,
                "ggH \\geq 2 JetpTH [0,200]": 0.094192,
                " qqH < 2 Jet \\vee mjj [0,350]": -0.022248,
                "qqH \\geq 2Jet mjj [350,\\infty]pTH [200,\\infty]": -0.035937000000000004,
                "qqH \\geq 2 Jet mjj [350,700]pTH [0,200]": -0.00639,
                "qqH \\geq 2 Jet mjj [700,\\infty]pTH [0,200]": -0.023578,
                "WHpTV [0,150]": 0.0009868000000000001,
                "WHpTV [150,\\infty]": 0.0020766,
                "ZHpTV [0,150]": 0.0029241000000000002,
                "ZHpTV [150,\\infty]": -0.00064301
            },
            "ggH 0 JetpTH [10,200]": {
                "ggHpTH [200_300]": 0.082402,
                "ggHpTH [300,\\infty]": 0.045404,
                "ggH 1 JetpTH [0,60]": -0.095151,
                "ggH 1 JetpTH [60,120]": 0.16646000000000002,
                "ggH 1 JetpTH [120,200]": 0.094429,
                "ggH \\geq 2 JetpTH [0,200]": 0.093037,
                " qqH < 2 Jet \\vee mjj [0,350]": -0.038921000000000004,
                "qqH \\geq 2Jet mjj [350,\\infty]pTH [200,\\infty]": -0.025833,
                "qqH \\geq 2 Jet mjj [350,700]pTH [0,200]": -0.020297000000000003,
                "qqH \\geq 2 Jet mjj [700,\\infty]pTH [0,200]": -0.026601,
                "WHpTV [0,150]": -0.0022177,
                "WHpTV [150,\\infty]": 0.0018708,
                "ZHpTV [0,150]": -0.00015681,
                "ZHpTV [150,\\infty]": -0.0005593999999999999
            },
            "ggHpTH [200_300]": {
                "ggHpTH [300,\\infty]": 0.45612,
                "ggH 1 JetpTH [0,60]": 0.091868,
                "ggH 1 JetpTH [60,120]": 0.28154,
                "ggH 1 JetpTH [120,200]": 0.40442,
                "ggH \\geq 2 JetpTH [0,200]": 0.42872,
                " qqH < 2 Jet \\vee mjj [0,350]": -0.45589,
                "qqH \\geq 2Jet mjj [350,\\infty]pTH [200,\\infty]": -0.26976,
                "qqH \\geq 2 Jet mjj [350,700]pTH [0,200]": -0.082853,
                "qqH \\geq 2 Jet mjj [700,\\infty]pTH [0,200]": -0.008849000000000001,
                "WHpTV [0,150]": 0.0014471999999999998,
                "WHpTV [150,\\infty]": 0.0018406,
                "ZHpTV [0,150]": 0.0024732,
                "ZHpTV [150,\\infty]": 0.0023925
            },
            "ggHpTH [300,\\infty]": {
                "ggH 1 JetpTH [0,60]": 0.054855,
                "ggH 1 JetpTH [60,120]": 0.19867,
                "ggH 1 JetpTH [120,200]": 0.32858,
                "ggH \\geq 2 JetpTH [0,200]": 0.36118,
                " qqH < 2 Jet \\vee mjj [0,350]": -0.30969,
                "qqH \\geq 2Jet mjj [350,\\infty]pTH [200,\\infty]": -0.12611,
                "qqH \\geq 2 Jet mjj [350,700]pTH [0,200]": -0.071556,
                "qqH \\geq 2 Jet mjj [700,\\infty]pTH [0,200]": -0.015519000000000002,
                "WHpTV [0,150]": 0.0019223999999999999,
                "WHpTV [150,\\infty]": 0.001198,
                "ZHpTV [0,150]": 0.0012443,
                "ZHpTV [150,\\infty]": 0.0017507
            },
            "ggH 1 JetpTH [0,60]": {
                "ggH 1 JetpTH [60,120]": 0.31246,
                "ggH 1 JetpTH [120,200]": 0.16201000000000002,
                "ggH \\geq 2 JetpTH [0,200]": 0.074743,
                " qqH < 2 Jet \\vee mjj [0,350]": -0.16829000000000002,
                "qqH \\geq 2Jet mjj [350,\\infty]pTH [200,\\infty]": -0.035115,
                "qqH \\geq 2 Jet mjj [350,700]pTH [0,200]": -0.010254000000000001,
                "qqH \\geq 2 Jet mjj [700,\\infty]pTH [0,200]": 0.019573,
                "WHpTV [0,150]": -0.0017169000000000002,
                "WHpTV [150,\\infty]": 0.0028783,
                "ZHpTV [0,150]": 0.0026290000000000003,
                "ZHpTV [150,\\infty]": 0.00036393000000000005
            },
            "ggH 1 JetpTH [60,120]": {
                "ggH 1 JetpTH [120,200]": 0.36479999999999996,
                "ggH \\geq 2 JetpTH [0,200]": 0.13534000000000002,
                " qqH < 2 Jet \\vee mjj [0,350]": -0.34029000000000004,
                "qqH \\geq 2Jet mjj [350,\\infty]pTH [200,\\infty]": -0.089793,
                "qqH \\geq 2 Jet mjj [350,700]pTH [0,200]": -0.044831,
                "qqH \\geq 2 Jet mjj [700,\\infty]pTH [0,200]": 0.0028334,
                "WHpTV [0,150]": -0.0031025000000000002,
                "WHpTV [150,\\infty]": 0.007731,
                "ZHpTV [0,150]": 0.006686,
                "ZHpTV [150,\\infty]": 0.0061463
            },
            "ggH 1 JetpTH [120,200]": {
                "ggH \\geq 2 JetpTH [0,200]": 0.24303000000000002,
                " qqH < 2 Jet \\vee mjj [0,350]": -0.40098999999999996,
                "qqH \\geq 2Jet mjj [350,\\infty]pTH [200,\\infty]": -0.086154,
                "qqH \\geq 2 Jet mjj [350,700]pTH [0,200]": -0.055537,
                "qqH \\geq 2 Jet mjj [700,\\infty]pTH [0,200]": 0.0011462,
                "WHpTV [0,150]": 0.0015363,
                "WHpTV [150,\\infty]": 0.0026677000000000003,
                "ZHpTV [0,150]": 0.0036059000000000004,
                "ZHpTV [150,\\infty]": 0.0043596
            },
            "ggH \\geq 2 JetpTH [0,200]": {
                " qqH < 2 Jet \\vee mjj [0,350]": -0.39329000000000003,
                "qqH \\geq 2Jet mjj [350,\\infty]pTH [200,\\infty]": -0.014106,
                "qqH \\geq 2 Jet mjj [350,700]pTH [0,200]": -0.25984,
                "qqH \\geq 2 Jet mjj [700,\\infty]pTH [0,200]": -0.14748,
                "WHpTV [0,150]": -0.0030261,
                "WHpTV [150,\\infty]": 0.0064696,
                "ZHpTV [0,150]": 0.0028455000000000004,
                "ZHpTV [150,\\infty]": 0.0035594
            },
            " qqH < 2 Jet \\vee mjj [0,350]": {
                "qqH \\geq 2Jet mjj [350,\\infty]pTH [200,\\infty]": 0.14698,
                "qqH \\geq 2 Jet mjj [350,700]pTH [0,200]": 0.10055,
                "qqH \\geq 2 Jet mjj [700,\\infty]pTH [0,200]": -0.045508,
                "WHpTV [0,150]": -0.00244,
                "WHpTV [150,\\infty]": 0.0005933900000000001,
                "ZHpTV [0,150]": -0.0021159,
                "ZHpTV [150,\\infty]": -0.0022475
            },
            "qqH \\geq 2Jet mjj [350,\\infty]pTH [200,\\infty]": {
                "qqH \\geq 2 Jet mjj [350,700]pTH [0,200]": 0.0078224,
                "qqH \\geq 2 Jet mjj [700,\\infty]pTH [0,200]": -0.018125,
                "WHpTV [0,150]": 9.4678e-05,
                "WHpTV [150,\\infty]": 0.0015126999999999999,
                "ZHpTV [0,150]": 0.0017718,
                "ZHpTV [150,\\infty]": 0.0016944999999999998
            },
            "qqH \\geq 2 Jet mjj [350,700]pTH [0,200]": {
                "qqH \\geq 2 Jet mjj [700,\\infty]pTH [0,200]": 0.14667,
                "WHpTV [0,150]": 0.0022599,
                "WHpTV [150,\\infty]": 0.0012284000000000002,
                "ZHpTV [0,150]": 0.004253600000000001,
                "ZHpTV [150,\\infty]": 0.0027348
            },
            "qqH \\geq 2 Jet mjj [700,\\infty]pTH [0,200]": {
                "WHpTV [0,150]": 0.005262599999999999,
                "WHpTV [150,\\infty]": 0.0042939,
                "ZHpTV [0,150]": 0.0091184,
                "ZHpTV [150,\\infty]": 0.0061532
            },
            "WHpTV [0,150]": {
                "WHpTV [150,\\infty]": -0.2775,
                "ZHpTV [0,150]": -0.036209,
                "ZHpTV [150,\\infty]": 0.01957
            },
            "WHpTV [150,\\infty]": {
                "ZHpTV [0,150]": 0.052184999999999995,
                "ZHpTV [150,\\infty]": -0.0050323
            },
            "ZHpTV [0,150]": {
                "ZHpTV [150,\\infty]": 0.068038
            }
        },
        "theoretical": {
            "ggHpTH [200_300]": {
                "ggH 1 JetpTH [0,60]": -0.09,
                "ggH 1 JetpTH [60,120]": 0.21,
                "ggH 1 JetpTH [120,200]": 0.57,
                "ggH \\geq 2 JetpTH [0,200]": 0.87
            },
            "ggH 1 JetpTH [0,60]": {
                "ggH 1 JetpTH [60,120]": 0.74,
                "ggH 1 JetpTH [120,200]": 0.36,
                "ggH \\geq 2 JetpTH [0,200]": -0.15
            },
            "ggH 1 JetpTH [60,120]": {
                "ggH 1 JetpTH [120,200]": 0.77,
                "ggH \\geq 2 JetpTH [0,200]": 0.06
            },
            "ggH 1 JetpTH [120,200]": {
                "ggH \\geq 2 JetpTH [0,200]": 0.35
            }
        }
    }
}