{
    "id": 2019045,
    "reference": "ATLAS-CONF-2019-045",
    "source": "Fig. 8, https://atlas.web.cern.ch/Atlas/GROUPS/PHYSICS/PAPERS/HIGG-2017-02/fig_04a.png",
    "citeKey": "ATLAS:2019nvo",
    "collider": "LHC13",
    "experiment": "ATLAS",
    "luminosity": 80.0,
    "referenceMass": 125,
    "referenceModel": "SMHiggsEW",
    "massResolution": 20,
    "subMeasurements": {
        "1l2tau": {
            "obs": [
                -0.6,
                0.3,
                1.41
            ],
            "channelWeights": [
                1.0,
                2.16516,
                178.073,
                0.0959487,
                0.0959487,
                1.0,
                2.16516,
                178.073,
                0.0959487,
                0.0959487,
                1.0,
                2.16516,
                178.073,
                0.0959487,
                0.0959487
            ],
            "process": {
                "channels": [
                    [
                        "Htt",
                        "WW"
                    ],
                    [
                        "Htt",
                        "ZZ"
                    ],
                    [
                        "Htt",
                        "tautau"
                    ],
                    [
                        "Htt",
                        "bb"
                    ],
                    [
                        "Htt",
                        "mumu"
                    ],
                    [
                        "Ht",
                        "WW"
                    ],
                    [
                        "Ht",
                        "ZZ"
                    ],
                    [
                        "Ht",
                        "tautau"
                    ],
                    [
                        "Ht",
                        "bb"
                    ],
                    [
                        "Ht",
                        "mumu"
                    ],
                    [
                        "HtW",
                        "WW"
                    ],
                    [
                        "HtW",
                        "ZZ"
                    ],
                    [
                        "HtW",
                        "tautau"
                    ],
                    [
                        "HtW",
                        "bb"
                    ],
                    [
                        "HtW",
                        "mumu"
                    ]
                ]
            },
            "ref": [
                1.0,
                1.0,
                1.0
            ]
        },
        "2lss": {
            "obs": [
                -0.16,
                0.38,
                0.95
            ],
            "channelWeights": [
                1.0,
                0.177857,
                0.707155,
                0.00501565,
                0.00501565,
                1.0,
                0.177857,
                0.707155,
                0.00501565,
                0.00501565,
                1.0,
                0.177857,
                0.707155,
                0.00501565,
                0.00501565
            ],
            "process": {
                "channels": [
                    [
                        "Htt",
                        "WW"
                    ],
                    [
                        "Htt",
                        "ZZ"
                    ],
                    [
                        "Htt",
                        "tautau"
                    ],
                    [
                        "Htt",
                        "bb"
                    ],
                    [
                        "Htt",
                        "mumu"
                    ],
                    [
                        "Ht",
                        "WW"
                    ],
                    [
                        "Ht",
                        "ZZ"
                    ],
                    [
                        "Ht",
                        "tautau"
                    ],
                    [
                        "Ht",
                        "bb"
                    ],
                    [
                        "Ht",
                        "mumu"
                    ],
                    [
                        "HtW",
                        "WW"
                    ],
                    [
                        "HtW",
                        "ZZ"
                    ],
                    [
                        "HtW",
                        "tautau"
                    ],
                    [
                        "HtW",
                        "bb"
                    ],
                    [
                        "HtW",
                        "mumu"
                    ]
                ]
            },
            "ref": [
                1.0,
                1.0,
                1.0
            ]
        },
        "2lss1tau": {
            "obs": [
                -0.42,
                0.43,
                1.53
            ],
            "channelWeights": [
                1.0,
                0.19765,
                4.92022,
                0.008759,
                0.008759,
                1.0,
                0.19765,
                4.92022,
                0.008759,
                0.008759,
                1.0,
                0.19765,
                4.92022,
                0.008759,
                0.008759
            ],
            "process": {
                "channels": [
                    [
                        "Htt",
                        "WW"
                    ],
                    [
                        "Htt",
                        "ZZ"
                    ],
                    [
                        "Htt",
                        "tautau"
                    ],
                    [
                        "Htt",
                        "bb"
                    ],
                    [
                        "Htt",
                        "mumu"
                    ],
                    [
                        "Ht",
                        "WW"
                    ],
                    [
                        "Ht",
                        "ZZ"
                    ],
                    [
                        "Ht",
                        "tautau"
                    ],
                    [
                        "Ht",
                        "bb"
                    ],
                    [
                        "Ht",
                        "mumu"
                    ],
                    [
                        "HtW",
                        "WW"
                    ],
                    [
                        "HtW",
                        "ZZ"
                    ],
                    [
                        "HtW",
                        "tautau"
                    ],
                    [
                        "HtW",
                        "bb"
                    ],
                    [
                        "HtW",
                        "mumu"
                    ]
                ]
            },
            "ref": [
                1.0,
                1.0,
                1.0
            ]
        },
        "3l": {
            "obs": [
                0.41,
                0.93,
                1.51
            ],
            "channelWeights": [
                1.0,
                0.591722,
                0.562886,
                0.009491,
                0.009491,
                1.0,
                0.591722,
                0.562886,
                0.009491,
                0.009491,
                1.0,
                0.591722,
                0.562886,
                0.009491,
                0.009491
            ],
            "process": {
                "channels": [
                    [
                        "Htt",
                        "WW"
                    ],
                    [
                        "Htt",
                        "ZZ"
                    ],
                    [
                        "Htt",
                        "tautau"
                    ],
                    [
                        "Htt",
                        "bb"
                    ],
                    [
                        "Htt",
                        "mumu"
                    ],
                    [
                        "Ht",
                        "WW"
                    ],
                    [
                        "Ht",
                        "ZZ"
                    ],
                    [
                        "Ht",
                        "tautau"
                    ],
                    [
                        "Ht",
                        "bb"
                    ],
                    [
                        "Ht",
                        "mumu"
                    ],
                    [
                        "HtW",
                        "WW"
                    ],
                    [
                        "HtW",
                        "ZZ"
                    ],
                    [
                        "HtW",
                        "tautau"
                    ],
                    [
                        "HtW",
                        "bb"
                    ],
                    [
                        "HtW",
                        "mumu"
                    ]
                ]
            },
            "ref": [
                1.0,
                1.0,
                1.0
            ]
        },
        "3l1tau": {
            "obs": [
                -0.42,
                0.43,
                1.53
            ],
            "channelWeights": [
                1.0,
                0.857246,
                5.73612,
                0.00991,
                0.00991,
                1.0,
                0.857246,
                5.73612,
                0.00991,
                0.00991,
                1.0,
                0.857246,
                5.73612,
                0.00991,
                0.00991
            ],
            "process": {
                "channels": [
                    [
                        "Htt",
                        "WW"
                    ],
                    [
                        "Htt",
                        "ZZ"
                    ],
                    [
                        "Htt",
                        "tautau"
                    ],
                    [
                        "Htt",
                        "bb"
                    ],
                    [
                        "Htt",
                        "mumu"
                    ],
                    [
                        "Ht",
                        "WW"
                    ],
                    [
                        "Ht",
                        "ZZ"
                    ],
                    [
                        "Ht",
                        "tautau"
                    ],
                    [
                        "Ht",
                        "bb"
                    ],
                    [
                        "Ht",
                        "mumu"
                    ],
                    [
                        "HtW",
                        "WW"
                    ],
                    [
                        "HtW",
                        "ZZ"
                    ],
                    [
                        "HtW",
                        "tautau"
                    ],
                    [
                        "HtW",
                        "bb"
                    ],
                    [
                        "HtW",
                        "mumu"
                    ]
                ]
            },
            "ref": [
                1.0,
                1.0,
                1.0
            ]
        },
        "4l": {
            "obs": [
                -0.2,
                0.52,
                1.45
            ],
            "channelWeights": [
                1.0,
                0.722545,
                0.757837,
                0.00925807,
                0.00925807,
                1.0,
                0.722545,
                0.757837,
                0.00925807,
                0.00925807,
                1.0,
                0.722545,
                0.757837,
                0.00925807,
                0.00925807
            ],
            "process": {
                "channels": [
                    [
                        "Htt",
                        "WW"
                    ],
                    [
                        "Htt",
                        "ZZ"
                    ],
                    [
                        "Htt",
                        "tautau"
                    ],
                    [
                        "Htt",
                        "bb"
                    ],
                    [
                        "Htt",
                        "mumu"
                    ],
                    [
                        "Ht",
                        "WW"
                    ],
                    [
                        "Ht",
                        "ZZ"
                    ],
                    [
                        "Ht",
                        "tautau"
                    ],
                    [
                        "Ht",
                        "bb"
                    ],
                    [
                        "Ht",
                        "mumu"
                    ],
                    [
                        "HtW",
                        "WW"
                    ],
                    [
                        "HtW",
                        "ZZ"
                    ],
                    [
                        "HtW",
                        "tautau"
                    ],
                    [
                        "HtW",
                        "bb"
                    ],
                    [
                        "HtW",
                        "mumu"
                    ]
                ]
            },
            "ref": [
                1.0,
                1.0,
                1.0
            ]
        }
    }
}