{
    "id": 210304956,
    "reference": "2103.04956",
    "source": "https://doi.org/10.17182/hepdata.102525.v4/t11, https://doi.org/10.17182/hepdata.102525.v4/t13, http://dgillber.web.cern.ch/dgillber/ggF_uncertainty_2017/corr2017.pdf",
    "citeKey": "CMS:2021ugl",
    "collider": "LHC13",
    "experiment": "CMS",
    "luminosity": 137.0,
    "referenceMass": 125.38,
    "referenceModel": "SMHiggsEW",
    "massResolution": 2.5,
    "subMeasurements": {
        "ggH_0j_pT_0_10": {
            "ref": [
                0.153,
                0.164,
                0.175
            ],
            "obs": [
                0.105,
                0.145,
                0.19
            ],
            "process": {
                "channels": [
                    [
                        "ggH",
                        "ZZ"
                    ]
                ]
            }
        },
        "ggH_0j_pT_10_200": {
            "ref": [
                0.474,
                0.561,
                0.648
            ],
            "obs": [
                0.521,
                0.611,
                0.709
            ],
            "process": {
                "channels": [
                    [
                        "H",
                        "ZZ"
                    ]
                ]
            }
        },
        "ggH_1j_pT_0_60": {
            "ref": [
                0.159,
                0.177,
                0.195
            ],
            "obs": [
                0.127,
                0.214,
                0.292
            ],
            "process": {
                "channels": [
                    [
                        "ggH",
                        "ZZ"
                    ]
                ]
            }
        },
        "ggH_1j_pT_60_120": {
            "ref": [
                0.107,
                0.121,
                0.135
            ],
            "obs": [
                0.00600000000000001,
                0.059,
                0.103
            ],
            "process": {
                "channels": [
                    [
                        "ggH",
                        "ZZ"
                    ]
                ]
            }
        },
        "ggH_1j_pT_120_200": {
            "ref": [
                0.016,
                0.02,
                0.024
            ],
            "obs": [
                0.031,
                0.053,
                0.078
            ],
            "process": {
                "channels": [
                    [
                        "ggH",
                        "ZZ"
                    ]
                ]
            }
        },
        "ggH_2j_pT_0_60": {
            "ref": [
                0.029,
                0.035,
                0.041
            ],
            "obs": [
                0.0,
                0.0,
                0.027
            ],
            "process": {
                "channels": [
                    [
                        "ggH",
                        "ZZ"
                    ]
                ]
            }
        },
        "ggH_2j_pT_60_120": {
            "ref": [
                0.042,
                0.051,
                0.06
            ],
            "obs": [
                0.041,
                0.078,
                0.119
            ],
            "process": {
                "channels": [
                    [
                        "ggH",
                        "ZZ"
                    ]
                ]
            }
        },
        "ggH_2j_pT_120_200": {
            "ref": [
                0.02,
                0.026,
                0.032
            ],
            "obs": [
                0.008,
                0.027,
                0.049
            ],
            "process": {
                "channels": [
                    [
                        "ggH",
                        "ZZ"
                    ]
                ]
            }
        },
        "ggH_2j_mjj_350": {
            "ref": [
                0.02,
                0.023,
                0.026
            ],
            "obs": [
                0.0,
                0.004,
                0.076
            ],
            "process": {
                "channels": [
                    [
                        "ggH",
                        "ZZ"
                    ]
                ]
            }
        },
        "ggH_pT_200": {
            "ref": [
                0.009,
                0.015,
                0.021
            ],
            "obs": [
                0.0,
                0.007,
                0.015
            ],
            "process": {
                "channels": [
                    [
                        "ggH",
                        "ZZ"
                    ]
                ]
            }
        },
        "qq_rest": {
            "ref": [
                0.066,
                0.071,
                0.076
            ],
            "obs": [
                0.0,
                0.011,
                0.172
            ],
            "process": {
                "channels": [
                    [
                        "vbfH",
                        "ZZ"
                    ]
                ]
            }
        },
        "qqH_2j_mjj_60_120": {
            "ref": [
                0.0109,
                0.0121,
                0.0133
            ],
            "obs": [
                0.0,
                0.012,
                0.042
            ],
            "process": {
                "channels": [
                    [
                        "HZ",
                        "ZZ"
                    ],
                    [
                        "HW",
                        "ZZ"
                    ]
                ]
            },
            "channelWeights": [
                0.69911,
                0.6741
            ]
        },
        "qqH_2j_mjj_350_700": {
            "ref": [
                0.0098,
                0.0105,
                0.0112
            ],
            "obs": [
                0.0,
                0.015,
                0.038
            ],
            "process": {
                "channels": [
                    [
                        "vbfH",
                        "ZZ"
                    ]
                ]
            }
        },
        "qqH_2j_mjj_700": {
            "ref": [
                0.014,
                0.015,
                0.016
            ],
            "obs": [
                0.0,
                0.0,
                0.012
            ],
            "process": {
                "channels": [
                    [
                        "vbfH",
                        "ZZ"
                    ]
                ]
            }
        },
        "qqH_3j_mjj_350": {
            "ref": [
                0.0084,
                0.0089,
                0.0094
            ],
            "obs": [
                0.0,
                0.043,
                0.073
            ],
            "process": {
                "channels": [
                    [
                        "vbfH",
                        "ZZ"
                    ]
                ]
            }
        },
        "qqH_2j_pT_200": {
            "ref": [
                0.004,
                0.0042,
                0.0044
            ],
            "obs": [
                0.0,
                0.0,
                0.003
            ],
            "process": {
                "channels": [
                    [
                        "vbfH",
                        "ZZ"
                    ]
                ]
            }
        },
        "VH_pTH_0_150": {
            "ref": [
                0.0212,
                0.0223,
                0.0234
            ],
            "obs": [
                0.016,
                0.056,
                0.114
            ],
            "process": {
                "channels": [
                    [
                        "HZ",
                        "ZZ"
                    ],
                    [
                        "HW",
                        "ZZ"
                    ]
                ]
            },
            "channelWeights": [
                0.067316,
                0.2172
            ]
        },
        "VH_pTH_150": {
            "ref": [
                0.0035,
                0.0036,
                0.0037
            ],
            "obs": [
                0.0,
                0.0,
                0.01
            ],
            "process": {
                "channels": [
                    [
                        "HZ",
                        "ZZ"
                    ],
                    [
                        "HW",
                        "ZZ"
                    ]
                ]
            },
            "channelWeights": [
                0.067316,
                0.2172
            ]
        },
        "ttH": {
            "ref": [
                0.0145,
                0.0159,
                0.0173
            ],
            "obs": [
                0.0,
                0.0,
                0.015
            ],
            "process": {
                "channels": [
                    [
                        "Htt",
                        "ZZ"
                    ],
                    [
                        "Ht",
                        "ZZ"
                    ],
                    [
                        "HtW",
                        "ZZ"
                    ]
                ]
            }
        }
    },
    "correlations": {
        "experimental": {
            "ggH_0j_pT_0_10": {
                "ggH_1j_pT_0_60": 0.03,
                "ggH_1j_pT_60_120": 0.013,
                "ggH_1j_pT_120_200": 0.045,
                "ggH_2j_pT_0_60": 0.046,
                "ggH_2j_pT_60_120": 0.032,
                "ggH_2j_pT_120_200": 0.018,
                "ggH_pT_200": 0.006,
                "ggH_2j_mjj_350": 0.003,
                "qq_rest": 0.005,
                "qqH_2j_mjj_60_120": 0.03,
                "qqH_2j_mjj_350_700": 0.021,
                "qqH_2j_mjj_700": 0.026,
                "qqH_3j_mjj_350": -0.006,
                "qqH_2j_pT_200": 0.034,
                "VH_pTH_0_150": 0.053,
                "VH_pTH_150": 0.042,
                "ttH": 0.069
            },
            "ggH_0j_pT_10_200": {
                "ggH_1j_pT_0_60": -0.233,
                "ggH_1j_pT_60_120": 0.059,
                "ggH_1j_pT_120_200": 0.077,
                "ggH_2j_pT_0_60": 0.1,
                "ggH_2j_pT_60_120": 0.037,
                "ggH_2j_pT_120_200": 0.031,
                "ggH_pT_200": 0.048,
                "ggH_2j_mjj_350": 0.037,
                "qq_rest": -0.025,
                "qqH_2j_mjj_60_120": 0.004,
                "qqH_2j_mjj_350_700": 0.037,
                "qqH_2j_mjj_700": 0.001,
                "qqH_3j_mjj_350": -0.002,
                "qqH_2j_pT_200": 0.038,
                "VH_pTH_0_150": -0.062,
                "VH_pTH_150": 0.02,
                "ttH": 0.037
            },
            "ggH_1j_pT_0_60": {
                "ggH_1j_pT_60_120": 0.235,
                "ggH_1j_pT_120_200": 0.114,
                "ggH_2j_pT_0_60": -0.294,
                "ggH_2j_pT_60_120": 0.216,
                "ggH_2j_pT_120_200": 0.179,
                "ggH_pT_200": 0.247,
                "ggH_2j_mjj_350": -0.059,
                "qq_rest": -0.503,
                "qqH_2j_mjj_60_120": -0.075,
                "qqH_2j_mjj_350_700": 0.078,
                "qqH_2j_mjj_700": 0.116,
                "qqH_3j_mjj_350": 0.073,
                "qqH_2j_pT_200": -0.023,
                "VH_pTH_0_150": -0.042,
                "VH_pTH_150": -0.043,
                "ttH": -0.079
            },
            "ggH_1j_pT_60_120": {
                "ggH_1j_pT_120_200": 0.048,
                "ggH_2j_pT_0_60": 0.147,
                "ggH_2j_pT_60_120": -0.087,
                "ggH_2j_pT_120_200": 0.236,
                "ggH_pT_200": 0.294,
                "ggH_2j_mjj_350": 0.006,
                "qq_rest": -0.563,
                "qqH_2j_mjj_60_120": -0.108,
                "qqH_2j_mjj_350_700": 0.078,
                "qqH_2j_mjj_700": 0.101,
                "qqH_3j_mjj_350": 0.071,
                "qqH_2j_pT_200": -0.037,
                "VH_pTH_0_150": -0.095,
                "VH_pTH_150": -0.108,
                "ttH": -0.09
            },
            "ggH_1j_pT_120_200": {
                "ggH_2j_pT_0_60": 0.139,
                "ggH_2j_pT_60_120": 0.16,
                "ggH_2j_pT_120_200": -0.12,
                "ggH_pT_200": 0.139,
                "ggH_2j_mjj_350": -0.007,
                "qq_rest": -0.282,
                "qqH_2j_mjj_60_120": 0.032,
                "qqH_2j_mjj_350_700": 0.075,
                "qqH_2j_mjj_700": 0.082,
                "qqH_3j_mjj_350": -0.003,
                "qqH_2j_pT_200": 0.045,
                "VH_pTH_0_150": 0.039,
                "VH_pTH_150": 0.04,
                "ttH": 0.05
            },
            "ggH_2j_pT_0_60": {
                "ggH_2j_pT_60_120": 0.063,
                "ggH_2j_pT_120_200": 0.121,
                "ggH_pT_200": 0.159,
                "ggH_2j_mjj_350": 0.107,
                "qq_rest": -0.11,
                "qqH_2j_mjj_60_120": 0.058,
                "qqH_2j_mjj_350_700": 0.051,
                "qqH_2j_mjj_700": 0.211,
                "qqH_3j_mjj_350": -0.192,
                "qqH_2j_pT_200": 0.246,
                "VH_pTH_0_150": 0.104,
                "VH_pTH_150": 0.296,
                "ttH": 0.271
            },
            "ggH_2j_pT_60_120": {
                "ggH_2j_pT_120_200": 0.07,
                "ggH_pT_200": 0.181,
                "ggH_2j_mjj_350": -0.008,
                "qq_rest": -0.328,
                "qqH_2j_mjj_60_120": -0.192,
                "qqH_2j_mjj_350_700": 0.098,
                "qqH_2j_mjj_700": 0.11,
                "qqH_2j_pT_200": 0.045,
                "VH_pTH_150": 0.031,
                "ttH": -0.024
            },
            "ggH_2j_pT_120_200": {
                "ggH_pT_200": 0.194,
                "ggH_2j_mjj_350": -0.049,
                "qq_rest": -0.323,
                "qqH_2j_mjj_60_120": -0.166,
                "qqH_2j_mjj_350_700": 0.098,
                "qqH_2j_mjj_700": 0.132,
                "qqH_3j_mjj_350": 0.008,
                "qqH_2j_pT_200": 0.086,
                "VH_pTH_0_150": 0.031,
                "VH_pTH_150": 0.076,
                "ttH": 0.009
            },
            "ggH_pT_200": {
                "ggH_2j_mjj_350": 0.092,
                "qq_rest": -0.353,
                "qqH_2j_mjj_60_120": -0.165,
                "qqH_2j_mjj_350_700": 0.086,
                "qqH_2j_mjj_700": 0.114,
                "qqH_3j_mjj_350": -0.015,
                "qqH_2j_pT_200": -0.312,
                "VH_pTH_0_150": -0.001,
                "VH_pTH_150": -0.182,
                "ttH": -0.051
            },
            "ggH_2j_mjj_350": {
                "qq_rest": -0.172,
                "qqH_2j_mjj_60_120": -0.038,
                "qqH_2j_mjj_350_700": -0.19,
                "qqH_2j_mjj_700": 0.06,
                "qqH_3j_mjj_350": -0.822,
                "qqH_2j_pT_200": 0.055,
                "VH_pTH_0_150": 0.025,
                "VH_pTH_150": 0.036,
                "ttH": 0.217
            },
            "qq_rest": {
                "qqH_2j_mjj_60_120": 0.141,
                "qqH_2j_mjj_350_700": -0.207,
                "qqH_2j_mjj_700": -0.293,
                "qqH_3j_mjj_350": 0.01,
                "qqH_2j_pT_200": 0.018,
                "VH_pTH_0_150": 0.045,
                "VH_pTH_150": 0.05,
                "ttH": 0.065
            },
            "qqH_2j_mjj_60_120": {
                "qqH_2j_mjj_350_700": 0.049,
                "qqH_2j_mjj_700": 0.067,
                "qqH_3j_mjj_350": -0.093,
                "qqH_2j_pT_200": 0.207,
                "VH_pTH_0_150": 0.082,
                "VH_pTH_150": 0.227,
                "ttH": 0.2
            },
            "qqH_2j_mjj_350_700": {
                "qqH_2j_mjj_700": 0.017,
                "qqH_3j_mjj_350": 0.109,
                "qqH_2j_pT_200": 0.061,
                "VH_pTH_0_150": 0.01,
                "VH_pTH_150": 0.055,
                "ttH": 0.013
            },
            "qqH_2j_mjj_700": {
                "qqH_3j_mjj_350": -0.113,
                "qqH_2j_pT_200": 0.075,
                "VH_pTH_0_150": 0.055,
                "VH_pTH_150": 0.112,
                "ttH": 0.058
            },
            "qqH_3j_mjj_350": {
                "qqH_2j_pT_200": -0.178,
                "VH_pTH_0_150": -0.048,
                "VH_pTH_150": -0.2,
                "ttH": -0.05
            },
            "qqH_2j_pT_200": {
                "VH_pTH_0_150": -0.152,
                "VH_pTH_150": 0.25,
                "ttH": 0.12
            },
            "VH_pTH_0_150": {
                "VH_pTH_150": 0.133,
                "ttH": 0.11
            },
            "VH_pTH_150": {
                "ttH": 0.353
            }
        },
        "theoretical": {
            "ggH_0j_pT_0_10": {
                "ggH_0j_pT_10_200": 1.0,
                "ggH_1j_pT_0_60": -0.16,
                "ggH_1j_pT_60_120": -0.16,
                "ggH_1j_pT_120_200": -0.12,
                "ggH_2j_pT_0_60": 0.12,
                "ggH_2j_pT_60_120": 0.13,
                "ggH_2j_pT_120_200": 0.11,
                "ggH_pT_200": 0.06
            },
            "ggH_0j_pT_10_200": {
                "ggH_1j_pT_0_60": -0.16,
                "ggH_1j_pT_60_120": -0.16,
                "ggH_1j_pT_120_200": -0.12,
                "ggH_2j_pT_0_60": 0.12,
                "ggH_2j_pT_60_120": 0.13,
                "ggH_2j_pT_120_200": 0.11,
                "ggH_pT_200": 0.06
            },
            "ggH_1j_pT_0_60": {
                "ggH_1j_pT_60_120": 0.74,
                "ggH_1j_pT_120_200": 0.36,
                "ggH_2j_pT_0_60": 0.09,
                "ggH_2j_pT_120_200": -0.15,
                "ggH_pT_200": -0.09
            },
            "ggH_1j_pT_60_120": {
                "ggH_1j_pT_120_200": 0.77,
                "ggH_2j_pT_0_60": -0.09,
                "ggH_2j_pT_60_120": -0.01,
                "ggH_2j_pT_120_200": 0.06,
                "ggH_pT_200": 0.21
            },
            "ggH_1j_pT_120_200": {
                "ggH_2j_pT_0_60": -0.17,
                "ggH_2j_pT_60_120": -0.01,
                "ggH_2j_pT_120_200": 0.35,
                "ggH_pT_200": 0.57
            },
            "ggH_2j_pT_0_60": {
                "ggH_2j_pT_60_120": 0.97,
                "ggH_2j_pT_120_200": 0.75,
                "ggH_pT_200": 0.47
            },
            "ggH_2j_pT_60_120": {
                "ggH_2j_pT_120_200": 0.87,
                "ggH_pT_200": 0.61
            },
            "ggH_2j_pT_120_200": {
                "ggH_pT_200": 0.87
            }
        }
    }
}